G04 #@! TF.FileFunction,Profile,NP*
%FSLAX46Y46*%
G04 Gerber Fmt 4.6, Leading zero omitted, Abs format (unit mm)*
G04 Created by KiCad (PCBNEW 4.0.4-stable) date 08/11/18 13:53:27*
%MOMM*%
%LPD*%
G01*
G04 APERTURE LIST*
%ADD10C,0.100000*%
%ADD11C,0.150000*%
G04 APERTURE END LIST*
D10*
D11*
X91990000Y-80900000D02*
X92110000Y-80900000D01*
X91990000Y-104260000D02*
X91990000Y-80900000D01*
X132490000Y-104260000D02*
X91990000Y-104260000D01*
X132490000Y-80880000D02*
X132490000Y-104260000D01*
X92120000Y-80900000D02*
X132500000Y-80890000D01*
M02*
